{
  "project_info": {
    "project_number": "452731202240",
    "project_id": "ninja-brew-crew-88c19",
    "storage_bucket": "ninja-brew-crew-88c19.appspot.com"
  },
  "client": [
    {
      "client_info": {
        "mobilesdk_app_id": "1:452731202240:android:bf5f7f46a717370e1a5b25",
        "android_client_info": {
          "package_name": "com.example.brew_crew"
        }
      },
      "oauth_client": [
        {
          "client_id": "452731202240-d04m8a1r0r8ha1v090m1khus4271bcv3.apps.googleusercontent.com",
          "client_type": 1,
          "android_info": {
            "package_name": "com.example.brew_crew",
            "certificate_hash": "897e42ed637a5f04b5e8206710ef04fa4249911d"
          }
        },
        {
          "client_id": "452731202240-jv2i0duri53sr3vm90rd3nr3m1uted7q.apps.googleusercontent.com",
          "client_type": 3
        }
      ],
      "api_key": [
        {
          "current_key": "AIzaSyBinvD7qGvKmD6tuJsq_okHl-JncLfXpWw"
        }
      ],
      "services": {
        "appinvite_service": {
          "other_platform_oauth_client": [
            {
              "client_id": "452731202240-jv2i0duri53sr3vm90rd3nr3m1uted7q.apps.googleusercontent.com",
              "client_type": 3
            }
          ]
        }
      }
    }
  ],
  "configuration_version": "1"
}